{
  "projects" : [ ],
  "tasks" : [ {
    "id" : "8d4a8dd1-2a1b-48ba-888a-3babfe280b21",
    "projectId" : null,
    "name" : "task 1",
    "dateBegin" : null,
    "dateEnd" : null
  }, {
    "id" : "2d1bc80a-327b-47db-a151-25bb1d4759a4",
    "projectId" : null,
    "name" : "task 2",
    "dateBegin" : null,
    "dateEnd" : null
  } ]
}